{
  "project_info": {
    "project_number": "389961362654",
    "firebase_url": "https://stickers-telegram.firebaseio.com",
    "project_id": "stickers-telegram",
    "storage_bucket": "stickers-telegram.appspot.com"
  },
  "client": [
    {
      "client_info": {
        "mobilesdk_app_id": "1:389961362654:android:9f3789c0f16dc97a",
        "android_client_info": {
          "package_name": "io.freetlgrm.beststickers"
        }
      },
      "oauth_client": [
        {
          "client_id": "389961362654-9d4dfvggrlpdo99q9s7mne3i0fedp3nb.apps.googleusercontent.com",
          "client_type": 3
        }
      ],
      "api_key": [
        {
          "current_key": "AIzaSyCkXftFxLYk6jkFzn_V1jnCZSplaet9H8Q"
        }
      ],
      "services": {
        "analytics_service": {
          "status": 1
        },
        "appinvite_service": {
          "status": 1,
          "other_platform_oauth_client": []
        },
        "ads_service": {
          "status": 2
        }
      }
    }
  ],
  "configuration_version": "1"
}